<?xml version="1.0" standalone="no"?>
<!DOCTYPE svg PUBLIC "-//W3C//DTD SVG 1.1//EN" "http://www.w3.org/Graphics/SVG/1.1/DTD/svg11.dtd">
<svg xmlns="http://www.w3.org/2000/svg">
<metadata>Generated by Fontastic.me</metadata>
<defs>
<font id="elbseite" horiz-adv-x="512">
<font-face font-family="elbseite" units-per-em="512" ascent="480" descent="-32"/>
<missing-glyph horiz-adv-x="512" />

<glyph unicode="&#97;" d="M343 225l88 85-121 18-54 109-54-109-121-18 88-85-21-120 108 57 108-57z m151 102c0-4-3-9-8-14l-103-101 24-143c0-1 0-3 0-5 0-10-3-15-11-15-4 0-8 2-12 4l-128 67-128-67c-4-2-8-4-12-4-4 0-7 2-9 5-2 2-3 6-3 10 0 1 0 3 1 5l24 143-104 101c-4 6-7 10-7 14 0 7 6 12 16 13l144 21 64 130c4 8 8 12 14 12 6 0 10-4 14-12l64-130 144-21c10-1 16-6 16-13z"/>
<glyph unicode="&#98;" d="M494 327c0-4-3-9-8-14l-103-101 24-143c0-1 0-3 0-5 0-4-1-8-3-10-2-3-4-5-8-5-4 0-8 2-12 4l-128 67-128-67c-4-2-8-4-12-4-4 0-7 2-9 5-2 2-3 6-3 10 0 1 0 3 1 5l24 143-104 101c-4 6-7 10-7 14 0 7 6 12 16 13l144 21 64 130c4 8 8 12 14 12 6 0 10-4 14-12l64-130 144-21c10-1 16-6 16-13z"/>
<glyph unicode="&#100;" d="M411 257c0 31-8 59-24 84l-216-215c26-17 55-25 85-25 21 0 41 4 60 12 20 8 36 19 50 33 14 14 25 31 33 50 8 19 12 40 12 61z m-285-86l216 216c-26 17-55 26-86 26-28 0-54-7-78-21-24-14-43-33-57-57-13-24-20-50-20-78 0-31 8-59 25-86z m349 86c0-30-5-59-17-86-12-27-27-51-47-70-19-20-43-35-70-47-27-12-55-17-85-17-30 0-58 5-85 17-27 12-51 27-70 47-20 19-35 43-47 70-12 27-17 56-17 86 0 30 5 58 17 85 12 28 27 51 47 71 19 19 43 35 70 46 27 12 55 18 85 18 30 0 58-6 85-18 27-11 51-27 70-46 20-20 35-43 47-71 12-27 17-55 17-85z"/>
<glyph unicode="&#101;" d="M427 418c0 0 0 0 0 0 0 5-3 8-8 8l0 0-106 0 0 0c-5 0-8-3-8-8l0-35c0-4 3-8 8-8l0 0 26 0-45-45c-21 15-47 24-75 24-74 0-134-60-134-134 0-74 60-134 134-134 74 0 134 60 134 134 0 27-8 53-23 74l46 46 0-28c0-5 4-8 8-8l35 0c5 0 8 3 8 8 0 0 0 0 0 0l0 106z m-208-281c-46 0-83 37-83 83 0 46 37 83 83 83 46 0 83-37 83-83 0-46-37-83-83-83z"/>
<glyph unicode="&#102;" d="M351 227c52 52 52 137 0 190-53 52-137 52-190 0-52-53-52-138 0-190 20-19 44-32 69-37l0-41-27 0c-2 0-4-1-6-2-1-2-2-4-2-6l0-35c0-5 3-8 8-8 0 0 0 0 0 0l27 0 0-34c0-4 3-7 6-8l0 0 2 0c0 0 0 0 0 0 0 0 0 0 0 0l35 0c0 0 0 0 0 0 4 0 8 4 8 8l0 0 0 34 28 0c0 0 0 0 0 0 5 0 8 3 8 8l0 35c0 2-1 4-2 6-2 1-4 2-6 2l-28 0 0 41c26 5 50 17 70 37z m-95 12c-46 0-83 37-83 83 0 46 37 83 83 83 46 0 83-37 83-83 0-46-37-83-83-83z"/>
<glyph unicode="&#103;" d="M140 73l26 26-67 67-26-26 0-30 37 0 0-37z m150 265c0 4-2 7-7 7-1 0-3-1-4-2l-155-155c-2-2-2-3-2-5 0-4 2-6 6-6 2 0 4 0 5 2l155 154c1 2 2 3 2 5z m-16 55l119-119-238-237-118 0 0 118z m195-27c0-10-3-19-10-26l-48-47-118 118 47 48c7 7 15 10 26 10 10 0 18-3 26-10l67-67c7-8 10-16 10-26z"/>
<glyph unicode="&#104;" d="M269 141l130 130c3 3 5 7 5 12 0 5-2 10-5 13l-30 29c-3 4-7 6-12 6-5 0-10-2-13-6l-88-87-88 87c-3 4-8 6-13 6-5 0-9-2-12-6l-30-29c-3-3-5-8-5-13 0-5 2-9 5-12l130-130c4-4 8-6 13-6 5 0 9 2 13 6z m206 115c0-40-9-77-29-110-20-34-46-60-80-80-33-20-70-29-110-29-40 0-77 9-110 29-34 20-60 46-80 80-20 33-29 70-29 110 0 40 9 77 29 110 20 34 46 60 80 80 33 20 70 29 110 29 40 0 77-9 110-29 34-20 60-46 80-80 20-33 29-70 29-110z"/>
<glyph unicode="&#105;" d="M369 187l30 29c3 3 5 8 5 13 0 5-2 9-5 12l-130 130c-4 4-8 6-13 6-5 0-9-2-13-6l-130-130c-3-3-5-7-5-12 0-5 2-10 5-13l30-29c3-4 7-6 12-6 5 0 10 2 13 6l88 87 88-87c3-4 8-6 13-6 5 0 9 2 12 6z m106 69c0-40-9-77-29-110-20-34-46-60-80-80-33-20-70-29-110-29-40 0-77 9-110 29-34 20-60 46-80 80-20 33-29 70-29 110 0 40 9 77 29 110 20 34 46 60 80 80 33 20 70 29 110 29 40 0 77-9 110-29 34-20 60-46 80-80 20-33 29-70 29-110z"/>
<glyph unicode="&#107;" d="M456 428c3-8 2-15-4-20l-141-141 0-212c0-8-4-14-11-17-3-1-5-1-7-1-6 0-10 1-13 5l-73 73c-4 4-6 8-6 13l0 139-141 141c-6 5-7 12-4 20 4 7 9 11 17 11l366 0c8 0 13-4 17-11z"/>
<glyph unicode="&#108;" d="M448 432l-384 0c-35 0-64-29-64-64l0-208c0-35 29-64 64-64l384 0c35 0 64 29 64 64l0 208c0 35-29 64-64 64z m-416-84l112-84-112-84z m448-188c0-18-14-32-32-32l-384 0c-18 0-32 14-32 32l125 94 70-52c9-7 19-10 29-10 10 0 20 3 29 10l70 52z m0 20l-112 84 112 84z m-205 34c-5-4-12-6-19-6-7 0-14 2-19 6l-66 50-14 10-125 94 0 0c0 18 14 32 32 32l384 0c18 0 32-14 32-32z"/>
<glyph unicode="&#109;" d="M511 217l-64 240c-4 13-17 23-31 23l-320 0c-14 0-27-10-31-23l-64-240c-1-3-1-6-1-9l0-112c0-35 29-64 64-64l384 0c35 0 64 29 64 64l0 112c0 3 0 6-1 9z m-31-121c0-18-14-32-32-32l-384 0c-18 0-32 14-32 32l0 112 64 240 320 0 64-240z m-100 320l-248 0c-7 0-13-5-15-12l-55-192c-2-5-1-10 2-14 3-4 8-6 13-6l73 0 23-46c6-11 17-18 29-18l108 0c12 0 23 7 29 18l23 46 73 0c5 0 10 2 13 6 3 4 4 9 2 14l-55 192c-2 7-8 12-15 12z m8-192l-26 0c-12 0-23-7-29-18l-23-46-108 0-23 46c-6 11-17 18-29 18l-65 0 47 176 248 0 47-176z"/>
<glyph unicode="&#110;" d="M505 509c-3 2-6 3-9 3-3 0-6-1-9-3l-480-320c-5-3-8-9-7-15 1-6 5-11 10-13l125-50 59-103c3-5 8-8 14-8 0 0 0 0 0 0 6 0 11 3 14 8l33 55 155-62c2-1 4-1 6-1 3 0 5 1 8 2 4 2 7 7 8 11l80 480c1 7-2 13-7 16z m-455-329l371 247-270-289c-1 1-2 2-4 3z m113-53c0 0 0 0 0 0l303 325-258-403z m240-89l-136 55c-3 1-7 2-10 2l210 326z"/>
<glyph unicode="&#111;" d="M141 256c0 0 0-46 0-46 0 0-103 82-103 82 0 0 103 87 103 87 0 0 0-51 0-51 0 0 281 0 281 0 14 0 26-5 36-15 10-10 16-22 16-37 0 0 0-143 0-143 0 0-72 0-72 0 0 0 0 123 0 123 0 0-261 0-261 0"/>
<glyph unicode="&#112;" d="M480 403c-2 25-23 45-48 45l-48 0 0 16c0 26-22 48-48 48l-160 0c-27 0-48-22-48-48l0-16-48 0c-26 0-46-20-48-45l0 0 0-35c0-18 14-32 32-32l0-272c0-35 29-64 64-64l256 0c35 0 64 29 64 64l0 272c18 0 32 14 32 32l0 35z m-320 61c0 9 7 16 16 16l160 0c9 0 16-7 16-16l0-16-192 0z m256-400c0-18-14-32-32-32l-256 0c-18 0-32 14-32 32l0 272 320 0z m32 320l0-16-384 0 0 32c0 9 7 16 16 16l352 0c9 0 16-7 16-16z m-304-320l32 0c9 0 16 7 16 16l0 208c0 9-7 16-16 16l-32 0c-9 0-16-7-16-16l0-208c0-9 7-16 16-16z m0 224l32 0 0-208-32 0z m96-224l32 0c9 0 16 7 16 16l0 208c0 9-7 16-16 16l-32 0c-9 0-16-7-16-16l0-208c0-9 7-16 16-16z m0 224l32 0 0-208-32 0z m96-224l32 0c9 0 16 7 16 16l0 208c0 9-7 16-16 16l-32 0c-9 0-16-7-16-16l0-208c0-9 7-16 16-16z m0 224l32 0 0-208-32 0z"/>
<glyph unicode="&#113;" d="M495 178c7-3 11-9 14-16 3-8 4-15 2-21 0 0-14-79-14-79-2-6-6-12-12-16-6-5-13-7-20-7 0 0-418 0-418 0-8 0-14 2-21 7-6 4-9 10-11 16 0 0-14 79-14 79-4 17 2 29 16 37 0 0 81 55 81 55 0 0 50 0 50 0 0 0-87-66-87-66 0 0 91 0 91 0 3 0 5-1 7-4 0 0 20-57 20-57 0 0 154 0 154 0 0 0 20 57 20 57 3 3 5 4 6 4 0 0 91 0 91 0 0 0-87 66-87 66 0 0 51 0 51 0 0 0 81-55 81-55m-106 165c0 0-133-125-133-125 0 0-133 125-133 125 0 0 85 0 85 0 0 0 0 131 0 131 0 0 97 0 97 0 0 0 0-131 0-131 0 0 84 0 84 0"/>
<glyph unicode="&#114;" d="M256 512c-141 0-256-115-256-256 0-141 115-256 256-256 141 0 256 115 256 256 0 141-115 256-256 256z m0-469c-118 0-213 95-213 213 0 118 95 213 213 213 118 0 213-95 213-213 0-118-95-213-213-213z m95 360c-11 5-23 1-29-9l-72-145-43 43c-8 9-22 9-30 0-8-8-8-21 0-30l64-64c4-4 9-6 15-6 1 0 2 0 3 0 7 1 13 6 16 12l85 170c6 11 1 24-9 29z m-116-296l42 0 0-22-42 0z m0 341l42 0 0-21-42 0z m-171-171l43 0 0-21-43 0z m341 0l43 0 0-21-43 0z"/>
<glyph unicode="&#115;" d="M256 228c53 0 96 43 96 96 0 53-43 96-96 96-53 0-96-43-96-96 0-53 43-96 96-96z m0 176c44 0 80-36 80-80 0-44-36-80-80-80-44 0-80 36-80 80 0 44 36 80 80 80z m0 108c-106 0-192-85-192-192 0-112 96-227 166-307 0 0 12-13 25-13 0 0 2 0 2 0 13 0 25 13 25 13 70 80 166 195 166 307 0 107-86 192-192 192z m2-478c0 0-1-1-2-2 0 1-2 2-2 2-59 68-158 182-158 286 0 88 72 160 160 160 88 0 160-72 160-160 0-104-99-218-158-286z"/>
<glyph unicode="&#116;" d="M402 311c0-5-2-9-5-13l-128-128c-4-4-8-5-13-5-5 0-9 1-13 5l-128 128c-3 4-5 8-5 13 0 5 2 9 5 13 4 3 8 5 13 5l256 0c5 0 9-2 13-5 3-4 5-8 5-13z"/>
<glyph unicode="&#118;" d="M367 176c6-6 9-13 9-22 0-8-3-16-9-22-6-5-13-8-22-8-8 0-16 3-22 8 0 0-68 78-68 78 0 0-67-78-67-78-6-5-14-8-22-8-9 0-16 3-22 8-6 6-8 14-8 22 0 9 2 16 8 22 0 0 71 80 71 80 0 0-71 81-71 81-6 6-8 13-8 22 0 8 2 16 8 22 6 5 13 8 22 8 8 0 16-3 22-8 0 0 67-78 67-78 0 0 68 78 68 78 6 5 14 8 22 8 9 0 16-3 22-8 6-6 9-14 9-22 0-9-3-16-9-22 0 0-71-81-71-81 0 0 71-80 71-80"/>
<glyph unicode="&#119;" d="M479 165c0-11-4-19-11-26l-21-22c-8-7-16-10-26-10-11 0-19 3-26 10l-139 139-139-139c-7-7-15-10-26-10-10 0-18 3-25 10l-22 22c-7 7-11 15-11 26 0 10 4 18 11 26l186 186c7 7 16 10 26 10 10 0 19-3 26-10l186-186c7-8 11-16 11-26z"/>
<glyph unicode="&#117;" d="M467 428c-58 57-151 58-211 4-60 54-153 53-211-4-60-60-60-156 0-215 17-17 177-175 177-175 19-19 49-19 68 0 0 0 175 173 177 175 60 59 60 155 0 215z m-23-192l-177-175c-6-7-16-7-22 0l-177 175c-47 46-47 122 0 169 45 45 118 47 166 4l22-20 22 20c48 43 121 41 166-4 47-47 47-123 0-169z m-296 156c0 0 0 0 0 0-38 0-68-30-68-68 0-4 4-8 8-8 4 0 8 4 8 8l0 0c0 29 23 52 52 52l0 0c4 0 8 4 8 8 0 4-4 8-8 8z"/>
<glyph unicode="&#99;" d="M469 464l-69 0 0 32c0 9-7 16-16 16-9 0-16-7-16-16l0-32-96 0 0 32c0 9-7 16-16 16-9 0-16-7-16-16l0-32-96 0 0 32c0 9-7 16-16 16-9 0-16-7-16-16l0-32-69 0c-24 0-43-19-43-43l0-378c0-24 19-43 43-43l426 0c24 0 43 19 43 43l0 378c0 24-19 43-43 43z m11-421c0-6-5-11-11-11l-426 0c-6 0-11 5-11 11l0 378c0 6 5 11 11 11l69 0 0-32c0-9 7-16 16-16 9 0 16 7 16 16l0 32 96 0 0-32c0-9 7-16 16-16 9 0 16 7 16 16l0 32 96 0 0-32c0-9 7-16 16-16 9 0 16 7 16 16l0 32 69 0c6 0 11-5 11-11z m-368 277l64 0 0-48-64 0z m0-80l64 0 0-48-64 0z m0-80l64 0 0-48-64 0z m112 0l64 0 0-48-64 0z m0 80l64 0 0-48-64 0z m0 80l64 0 0-48-64 0z m112-160l64 0 0-48-64 0z m0 80l64 0 0-48-64 0z m0 80l64 0 0-48-64 0z"/>
</font></defs></svg>
